Fundamentals of R: Data Manipulation
…
## `select()`: Select a single column

View only `lead_time` (number of days between booking and arrival date):

```r
select(hotels, lead_time)
```

```
## # A tibble: 119,390 × 1
##   lead_time
##       <dbl>
## 1       342
## 2       737
## 3         7
## 4        13
## 5        14
## 6        14
## # … with 119,384 more rows
```
…
## Select multiple columns

View only the `hotel` type and `lead_time` columns:

```r
select(hotels, hotel, lead_time)
```

```
## # A tibble: 119,390 × 2
##   hotel        lead_time
##   <chr>            <dbl>
## 1 Resort Hotel       342
## 2 Resort Hotel       737
## 3 Resort Hotel         7
## 4 Resort Hotel        13
## 5 Resort Hotel        14
## 6 Resort Hotel        14
## # … with 119,384 more rows
```
---
## `select()` to exclude variables

- We saw earlier that `select()` keeps variables
- `select()` can also exclude variables, using the `-` sign

.small[

```r
hotels %>%
  select(-agent) 
```

```
## # A tibble: 119,390 × 31
##   hotel   is_ca…¹ lead_…² arriv…³ arriv…⁴ arriv…⁵ arriv…⁶ stays…⁷
##   <chr>     <dbl>   <dbl>   <dbl> <chr>     <dbl>   <dbl>   <dbl>
## 1 Resort…       0     342    2015 July         27       1       0
## 2 Resort…       0     737    2015 July         27       1       0
## 3 Resort…       0       7    2015 July         27       1       0
## 4 Resort…       0      13    2015 July         27       1       0
## 5 Resort…       0      14    2015 July         27       1       0
## 6 Resort…       0      14    2015 July         27       1       0
## # … with 119,384 more rows, 23 more variables:
## #   stays_in_week_nights <dbl>, adults <dbl>, children <dbl>,
## #   babies <dbl>, meal <chr>, country <chr>,
## #   market_segment <chr>, distribution_channel <chr>,
## #   is_repeated_guest <dbl>, previous_cancellations <dbl>,
## #   previous_bookings_not_canceled <dbl>,
## #   reserved_room_type <chr>, assigned_room_type <chr>, …
```
…
---

## `select()` a range of variables

- Instead of writing out all the variable names, `select()` also accepts a range of variables 

- This follows the order they are listed in the data frame

```r
hotels %>%
  select(hotel:arrival_date_month) 
```

```
## # A tibble: 119,390 × 5
##   hotel        is_canceled lead_time arrival_date_year arrival_…¹
##   <chr>              <dbl>     <dbl>             <dbl> <chr>     
## 1 Resort Hotel           0       342              2015 July      
## 2 Resort Hotel           0       737              2015 July      
## 3 Resort Hotel           0         7              2015 July      
## 4 Resort Hotel           0        13              2015 July      
## 5 Resort Hotel           0        14              2015 July      
## 6 Resort Hotel           0        14              2015 July      
## # … with 119,384 more rows, and abbreviated variable name
## #   ¹​arrival_date_month
```

---

## `select()` variables with certain characteristics

```r
hotels %>%
  select(starts_with("arrival"))
```

```
## # A tibble: 119,390 × 4
##   arrival_date_year arrival_date_month arrival_date_wee…¹ arriv…²
##               <dbl> <chr>                           <dbl>   <dbl>
## 1              2015 July                               27       1
## 2              2015 July                               27       1
## 3              2015 July                               27       1
## 4              2015 July                               27       1
## 5              2015 July                               27       1
## 6              2015 July                               27       1
## # … with 119,384 more rows, and abbreviated variable names
## #   ¹​arrival_date_week_number, ²​arrival_date_day_of_month
```

---

## `select()` variables with certain characteristics

```r
hotels %>%
  select(ends_with("type")) 
```

```
## # A tibble: 119,390 × 4
##   reserved_room_type assigned_room_type deposit_type customer_t…¹
##   <chr>              <chr>              <chr>        <chr>       
## 1 C                  C                  No Deposit   Transient   
## 2 C                  C                  No Deposit   Transient   
## 3 A                  C                  No Deposit   Transient   
## 4 A                  A                  No Deposit   Transient   
## 5 A                  A                  No Deposit   Transient   
## 6 A                  A                  No Deposit   Transient   
## # … with 119,384 more rows, and abbreviated variable name
## #   ¹​customer_type
```
…
---

## `select()`, then `arrange()`

What if we wanted to select these columns, and then arrange the data in order of lead time?

```r
hotels %>%
  select(hotel, lead_time) %>%
  arrange(lead_time)
```

```
## # A tibble: 119,390 × 2
##   hotel        lead_time
##   <chr>            <dbl>
## 1 Resort Hotel         0
## 2 Resort Hotel         0
## 3 Resort Hotel         0
## 4 Resort Hotel         0
## 5 Resort Hotel         0
## 6 Resort Hotel         0
## # … with 119,384 more rows
```
…
.pull-left[
- Start with the data frame `hotels`, and pass it to the `select()` function,
]
.pull-right[
.small[

```r
hotels %>% 
  select(hotel, lead_time) %>%
  arrange(lead_time)
```

```
## # A tibble: 119,390 × 2
##   hotel        lead_time
##   <chr>            <dbl>
## 1 Resort Hotel         0
## 2 Resort Hotel         0
## 3 Resort Hotel         0
## 4 Resort Hotel         0
## 5 Resort Hotel         0
## 6 Resort Hotel         0
## # … with 119,384 more rows
```
…
.pull-left[
- Start with the data frame `hotels`, and pass it to the `select()` function,
- then we select the variables `hotel` and `lead_time`,
]
.pull-right[
.small[

```r
hotels %>%
  select(hotel, lead_time) %>% #<<
  arrange(lead_time)
```

```
## # A tibble: 119,390 × 2
##   hotel        lead_time
##   <chr>            <dbl>
## 1 Resort Hotel         0
## 2 Resort Hotel         0
## 3 Resort Hotel         0
## 4 Resort Hotel         0
## 5 Resort Hotel         0
## 6 Resort Hotel         0
## # … with 119,384 more rows
```
…
```r
hotels %>%
  select(hotel, lead_time) %>% 
  arrange(lead_time) #<<
```

```
## # A tibble: 119,390 × 2
##   hotel        lead_time
##   <chr>            <dbl>
## 1 Resort Hotel         0
## 2 Resort Hotel         0
## 3 Resort Hotel         0
## 4 Resort Hotel         0
## 5 Resort Hotel         0
## 6 Resort Hotel         0
## # … with 119,384 more rows
```
…
- We saw earlier that `arrange()` defaults to ascending order

- For descending order, use `desc()`

.pull-left[

```r
hotels %>%
  select(hotel, lead_time) %>% 
  arrange(lead_time)
```

```
## # A tibble: 119,390 × 2
##   hotel        lead_time
##   <chr>            <dbl>
## 1 Resort Hotel         0
## 2 Resort Hotel         0
## 3 Resort Hotel         0
## 4 Resort Hotel         0
## 5 Resort Hotel         0
## 6 Resort Hotel         0
## # … with 119,384 more rows
```
]
.pull-right[

```r
hotels %>%
  select(hotel, lead_time) %>% 
  arrange(desc(lead_time))
```

```
## # A tibble: 119,390 × 2
##   hotel        lead_time
##   <chr>            <dbl>
## 1 Resort Hotel       737
## 2 Resort Hotel       709
## 3 City Hotel         629
## 4 City Hotel         629
## 5 City Hotel         629
## 6 City Hotel         629
## # … with 119,384 more rows
```
…
---

## `filter()` to select a subset of rows

.small[

```r
# bookings in City Hotels
hotels %>%
  filter(hotel == "City Hotel") 
```

```
## # A tibble: 79,330 × 32
##   hotel   is_ca…¹ lead_…² arriv…³ arriv…⁴ arriv…⁵ arriv…⁶ stays…⁷
##   <chr>     <dbl>   <dbl>   <dbl> <chr>     <dbl>   <dbl>   <dbl>
## 1 City H…       0       6    2015 July         27       1       0
## 2 City H…       1      88    2015 July         27       1       0
## 3 City H…       1      65    2015 July         27       1       0
## 4 City H…       1      92    2015 July         27       1       2
## 5 City H…       1     100    2015 July         27       2       0
## 6 City H…       1      79    2015 July         27       2       0
## # … with 79,324 more rows, 24 more variables:
## #   stays_in_week_nights <dbl>, adults <dbl>, children <dbl>,
## #   babies <dbl>, meal <chr>, country <chr>,
## #   market_segment <chr>, distribution_channel <chr>,
## #   is_repeated_guest <dbl>, previous_cancellations <dbl>,
## #   previous_bookings_not_canceled <dbl>,
## #   reserved_room_type <chr>, assigned_room_type <chr>, …
```
…
---

## `filter()` for many conditions at once

```r
hotels %>%
  filter( 
    adults == 0,     
    children >= 1    
    ) %>% 
  select(adults, babies, children)
```

```
## # A tibble: 223 × 3
##   adults babies children
##    <dbl>  <dbl>    <dbl>
## 1      0      0        3
## 2      0      0        2
## 3      0      0        2
## 4      0      0        2
## 5      0      0        2
## 6      0      0        3
## # … with 217 more rows
```
…
## `filter()` for more complex conditions

```r
# bookings with no adults and some children or babies in the room
hotels %>%
  filter( 
    adults == 0,     
    children >= 1 | babies >= 1   
    ) %>%
  select(adults, babies, children)
```

```
## # A tibble: 223 × 3
##   adults babies children
##    <dbl>  <dbl>    <dbl>
## 1      0      0        3
## 2      0      0        2
## 3      0      0        2
## 4      0      0        2
## 5      0      0        2
## 6      0      0        3
## # … with 217 more rows
```
…
---

## `mutate()` to add a new variable

```r
hotels %>%
  mutate(little_ones = children + babies) %>% 
  select(children, babies, little_ones) %>%
  arrange(desc(little_ones))
```

```
## # A tibble: 119,390 × 3
##   children babies little_ones
##      <dbl>  <dbl>       <dbl>
## 1       10      0          10
## 2        0     10          10
## 3        0      9           9
## 4        2      1           3
## 5        2      1           3
## 6        2      1           3
## # … with 119,384 more rows
```
…
