Data visualization and Descriptive Statistics
…
```
## Error in select(hotel, lead_time): object 'hotel' not found
```

✅

```r
hotels %>%
  select(hotel, lead_time)
```

.tiny[

```
## # A tibble: 119,390 × 2
##   hotel        lead_time
##   <chr>            <dbl>
## 1 Resort Hotel       342
## 2 Resort Hotel       737
## 3 Resort Hotel         7
## 4 Resort Hotel        13
## 5 Resort Hotel        14
## 6 Resort Hotel        14
## # … with 119,384 more rows
```
…
