Fundamentals of R: Data Manipulation
…
---

## `select()`: Select a single column

View only `lead_time` (number of days between booking and arrival date):

``` r
select(hotels, lead_time)
```

```
## # A tibble: 119,390 × 1
##   lead_time
##       <dbl>
## 1       342
## 2       737
## 3         7
## 4        13
## 5        14
## 6        14
## # ℹ 119,384 more rows
```
…
## Select multiple columns

View only the `hotel` type and `lead_time` columns:

``` r
select(hotels, hotel, lead_time)
```

```
## # A tibble: 119,390 × 2
##   hotel        lead_time
##   <chr>            <dbl>
## 1 Resort Hotel       342
## 2 Resort Hotel       737
## 3 Resort Hotel         7
## 4 Resort Hotel        13
## 5 Resort Hotel        14
## 6 Resort Hotel        14
## # ℹ 119,384 more rows
```
---
## `select()` to exclude variables

- We saw earlier that `select()` keeps variables
- `select()` can also exclude variables, using the `-` sign

.small[

``` r
hotels %>%
  select(-agent) 
```

```
## # A tibble: 119,390 × 31
##   hotel        is_canceled lead_time arrival_date_year
##   <chr>              <dbl>     <dbl>             <dbl>
## 1 Resort Hotel           0       342              2015
## 2 Resort Hotel           0       737              2015
## 3 Resort Hotel           0         7              2015
## 4 Resort Hotel           0        13              2015
## 5 Resort Hotel           0        14              2015
## 6 Resort Hotel           0        14              2015
## # ℹ 119,384 more rows
## # ℹ 27 more variables: arrival_date_month <chr>,
## #   arrival_date_week_number <dbl>,
## #   arrival_date_day_of_month <dbl>,
## #   stays_in_weekend_nights <dbl>, stays_in_week_nights <dbl>,
## #   adults <dbl>, children <dbl>, babies <dbl>, meal <chr>,
## #   country <chr>, market_segment <chr>, …
```
…
---

## `select()` a range of variables

- Instead of writing out all the variable names, `select()` also accepts a **range of variables** 

- This follows the order they are listed in the data frame

``` r
hotels %>%
  select(hotel:arrival_date_month) 
```

```
## # A tibble: 119,390 × 5
##   hotel        is_canceled lead_time arrival_date_year
##   <chr>              <dbl>     <dbl>             <dbl>
## 1 Resort Hotel           0       342              2015
## 2 Resort Hotel           0       737              2015
## 3 Resort Hotel           0         7              2015
## 4 Resort Hotel           0        13              2015
## 5 Resort Hotel           0        14              2015
## 6 Resort Hotel           0        14              2015
## # ℹ 119,384 more rows
## # ℹ 1 more variable: arrival_date_month <chr>
```

---

## `select()` variables with certain characteristics

``` r
hotels %>%
  select(starts_with("arrival"))
```

```
## # A tibble: 119,390 × 4
##   arrival_date_year arrival_date_month arrival_date_week_number
##               <dbl> <chr>                                 <dbl>
## 1              2015 July                                     27
## 2              2015 July                                     27
## 3              2015 July                                     27
## 4              2015 July                                     27
## 5              2015 July                                     27
## 6              2015 July                                     27
## # ℹ 119,384 more rows
## # ℹ 1 more variable: arrival_date_day_of_month <dbl>
```

---

## `select()` variables with certain characteristics

``` r
hotels %>%
  select(ends_with("type")) 
```

```
## # A tibble: 119,390 × 4
##   reserved_room_type assigned_room_type deposit_type
##   <chr>              <chr>              <chr>       
## 1 C                  C                  No Deposit  
## 2 C                  C                  No Deposit  
## 3 A                  C                  No Deposit  
## 4 A                  A                  No Deposit  
## 5 A                  A                  No Deposit  
## 6 A                  A                  No Deposit  
## # ℹ 119,384 more rows
## # ℹ 1 more variable: customer_type <chr>
```
…
---

## `select()`, then `arrange()`

What if we wanted to select these columns, and then arrange the data in order of lead time?

``` r
hotels %>%
  select(hotel, lead_time) %>%
  arrange(lead_time)
```

```
## # A tibble: 119,390 × 2
##   hotel        lead_time
##   <chr>            <dbl>
## 1 Resort Hotel         0
## 2 Resort Hotel         0
## 3 Resort Hotel         0
## 4 Resort Hotel         0
## 5 Resort Hotel         0
## 6 Resort Hotel         0
## # ℹ 119,384 more rows
```
…
.pull-left[
- Start with the data frame `hotels`, and pass it to the `select()` function,
]
.pull-right[
.small[

``` r
hotels %>% 
  select(hotel, lead_time) %>%
  arrange(lead_time)
```

```
## # A tibble: 119,390 × 2
##   hotel        lead_time
##   <chr>            <dbl>
## 1 Resort Hotel         0
## 2 Resort Hotel         0
## 3 Resort Hotel         0
## 4 Resort Hotel         0
## 5 Resort Hotel         0
## 6 Resort Hotel         0
## # ℹ 119,384 more rows
```
…
.pull-left[
- Start with the data frame `hotels`, and pass it to the `select()` function,
- then we select the variables `hotel` and `lead_time`,
]
.pull-right[
.small[

``` r
hotels %>%
  select(hotel, lead_time) %>% #<<
  arrange(lead_time)
```

```
## # A tibble: 119,390 × 2
##   hotel        lead_time
##   <chr>            <dbl>
## 1 Resort Hotel         0
## 2 Resort Hotel         0
## 3 Resort Hotel         0
## 4 Resort Hotel         0
## 5 Resort Hotel         0
## 6 Resort Hotel         0
## # ℹ 119,384 more rows
```
…
``` r
hotels %>%
  select(hotel, lead_time) %>% 
  arrange(lead_time) #<<
```

```
## # A tibble: 119,390 × 2
##   hotel        lead_time
##   <chr>            <dbl>
## 1 Resort Hotel         0
## 2 Resort Hotel         0
## 3 Resort Hotel         0
## 4 Resort Hotel         0
## 5 Resort Hotel         0
## 6 Resort Hotel         0
## # ℹ 119,384 more rows
```
…
- We saw earlier that `arrange()` defaults to ascending order

- For descending order, use `desc()`

.pull-left[

``` r
hotels %>%
  select(hotel, lead_time) %>% 
  arrange(lead_time)
```

```
## # A tibble: 119,390 × 2
##   hotel        lead_time
##   <chr>            <dbl>
## 1 Resort Hotel         0
## 2 Resort Hotel         0
## 3 Resort Hotel         0
## 4 Resort Hotel         0
## 5 Resort Hotel         0
## 6 Resort Hotel         0
## # ℹ 119,384 more rows
```
]
.pull-right[

``` r
hotels %>%
  select(hotel, lead_time) %>% 
  arrange(desc(lead_time))
```

```
## # A tibble: 119,390 × 2
##   hotel        lead_time
##   <chr>            <dbl>
## 1 Resort Hotel       737
## 2 Resort Hotel       709
## 3 City Hotel         629
## 4 City Hotel         629
## 5 City Hotel         629
## 6 City Hotel         629
## # ℹ 119,384 more rows
```
…
---

## `filter()` to select a subset of rows

.small[

``` r
# bookings in City Hotels
hotels %>%
  filter(hotel == "City Hotel") 
```

```
## # A tibble: 79,330 × 32
##   hotel      is_canceled lead_time arrival_date_year
##   <chr>            <dbl>     <dbl>             <dbl>
## 1 City Hotel           0         6              2015
## 2 City Hotel           1        88              2015
## 3 City Hotel           1        65              2015
## 4 City Hotel           1        92              2015
## 5 City Hotel           1       100              2015
## 6 City Hotel           1        79              2015
## # ℹ 79,324 more rows
## # ℹ 28 more variables: arrival_date_month <chr>,
## #   arrival_date_week_number <dbl>,
## #   arrival_date_day_of_month <dbl>,
## #   stays_in_weekend_nights <dbl>, stays_in_week_nights <dbl>,
## #   adults <dbl>, children <dbl>, babies <dbl>, meal <chr>,
## #   country <chr>, market_segment <chr>, …
```
…
---

## `filter()` for many conditions at once

``` r
hotels %>%
  filter( 
    adults == 0,     
    children >= 1    
    ) %>% 
  select(adults, babies, children)
```

```
## # A tibble: 223 × 3
##   adults babies children
##    <dbl>  <dbl>    <dbl>
## 1      0      0        3
## 2      0      0        2
## 3      0      0        2
## 4      0      0        2
## 5      0      0        2
## 6      0      0        3
## # ℹ 217 more rows
```
…
## `filter()` for more complex conditions

``` r
# bookings with no adults and some children or babies in the room
hotels %>%
  filter( 
    adults == 0,     
    children >= 1 | babies >= 1   
    ) %>%
  select(adults, babies, children)
```

```
## # A tibble: 223 × 3
##   adults babies children
##    <dbl>  <dbl>    <dbl>
## 1      0      0        3
## 2      0      0        2
## 3      0      0        2
## 4      0      0        2
## 5      0      0        2
## 6      0      0        3
## # ℹ 217 more rows
```
…
---
## `distinct()` to filter for unique rows

.small[
.pull-left[

``` r
hotels %>% 
  distinct(market_segment) 
```

```
## # A tibble: 8 × 1
##   market_segment
##   <chr>         
## 1 Direct        
## 2 Corporate     
## 3 Online TA     
## 4 Offline TA/TO 
## 5 Complementary 
## 6 Groups        
## # ℹ 2 more rows
```
]

.pull-left[
Recall: `arrange()` to order alphabetically

``` r
hotels %>% 
  distinct(market_segment) %>%
  arrange(market_segment)
```

```
## # A tibble: 8 × 1
##   market_segment
##   <chr>         
## 1 Aviation      
## 2 Complementary 
## 3 Corporate     
## 4 Direct        
## 5 Groups        
## 6 Offline TA/TO 
## # ℹ 2 more rows
```
]
]

---
## `distinct()` using more than one variable 

``` r
hotels %>% 
  distinct(hotel, market_segment) %>% #<<
  arrange(hotel, market_segment)
```

```
## # A tibble: 14 × 2
##   hotel      market_segment
##   <chr>      <chr>         
## 1 City Hotel Aviation      
## 2 City Hotel Complementary 
## 3 City Hotel Corporate     
## 4 City Hotel Direct        
## 5 City Hotel Groups        
## 6 City Hotel Offline TA/TO 
## # ℹ 8 more rows
```

---
## `mutate()` to add a new variable

``` r
hotels %>%
  mutate(little_ones = children + babies) %>% 
  select(children, babies, little_ones) %>%
  arrange(desc(little_ones))
```

```
## # A tibble: 119,390 × 3
##   children babies little_ones
##      <dbl>  <dbl>       <dbl>
## 1       10      0          10
## 2        0     10          10
## 3        0      9           9
## 4        2      1           3
## 5        2      1           3
## 6        2      1           3
## # ℹ 119,384 more rows
```
…
---

## `count()` to create frequency tables

.pull-left[

``` r
# alphabetical order by default
hotels %>%
  count(market_segment) #<<
```

```
## # A tibble: 8 × 2
##   market_segment     n
##   <chr>          <int>
## 1 Aviation         237
## 2 Complementary    743
## 3 Corporate       5295
## 4 Direct         12606
## 5 Groups         19811
## 6 Offline TA/TO  24219
## # ℹ 2 more rows
```
]

.pull-right[

``` r
# descending frequency order
hotels %>%
  count(market_segment, 
        sort = TRUE) #<<
```

```
## # A tibble: 8 × 2
##   market_segment     n
##   <chr>          <int>
## 1 Online TA      56477
## 2 Offline TA/TO  24219
## 3 Groups         19811
## 4 Direct         12606
## 5 Corporate       5295
## 6 Complementary    743
## # ℹ 2 more rows
```
…
---

## `count()` and `arrange()`

.pull-left[

``` r
# ascending frequency order
hotels %>%
  count(market_segment) %>%
  arrange(n) #<<
```

```
## # A tibble: 8 × 2
##   market_segment     n
##   <chr>          <int>
## 1 Undefined          2
## 2 Aviation         237
## 3 Complementary    743
## 4 Corporate       5295
## 5 Direct         12606
## 6 Groups         19811
## # ℹ 2 more rows
```
]
.pull-right[

``` r
# descending frequency order
# just like adding sort = TRUE
hotels %>%
  count(market_segment) %>%
  arrange(desc(n)) #<<
```

```
## # A tibble: 8 × 2
##   market_segment     n
##   <chr>          <int>
## 1 Online TA      56477
## 2 Offline TA/TO  24219
## 3 Groups         19811
## 4 Direct         12606
## 5 Corporate       5295
## 6 Complementary    743
## # ℹ 2 more rows
```
]

---

## `count()` for multiple variables

``` r
hotels %>%
  count(hotel, market_segment) 
```

```
## # A tibble: 14 × 3
##   hotel      market_segment     n
##   <chr>      <chr>          <int>
## 1 City Hotel Aviation         237
## 2 City Hotel Complementary    542
## 3 City Hotel Corporate       2986
## 4 City Hotel Direct          6093
## 5 City Hotel Groups         13975
## 6 City Hotel Offline TA/TO  16747
## # ℹ 8 more rows
```
…
---
## Exercise: NYC Flights data
This data frame contains data on all 336,776 flights that departed from New York City in 2013. It is available as part of the `nycflights13` package. 

``` r
nycflights13::flights
```

```
## # A tibble: 336,776 × 19
##    year month   day dep_time sched_dep_time dep_delay arr_time
##   <int> <int> <int>    <int>          <int>     <dbl>    <int>
## 1  2013     1     1      517            515         2      830
## 2  2013     1     1      533            529         4      850
## 3  2013     1     1      542            540         2      923
## 4  2013     1     1      544            545        -1     1004
## 5  2013     1     1      554            600        -6      812
## 6  2013     1     1      554            558        -4      740
## # ℹ 336,770 more rows
## # ℹ 12 more variables: sched_arr_time <int>, arr_delay <dbl>,
## #   carrier <chr>, flight <int>, tailnum <chr>, origin <chr>,
## #   dest <chr>, air_time <dbl>, distance <dbl>, hour <dbl>,
## #   minute <dbl>, time_hour <dttm>
```
…
