Fundamentals of R: More Data Structures, Visualization
…
---
## First question: What's in a data set?

### Example: Star Wars data 

- `starwars` data set in the `dplyr` package 

```r
dplyr::starwars
```

```
## # A tibble: 87 × 14
##   name  height  mass hair_…¹ skin_…² eye_c…³ birth…⁴ sex   gender
##   <chr>  <int> <dbl> <chr>   <chr>   <chr>     <dbl> <chr> <chr> 
## 1 Luke…    172    77 blond   fair    blue       19   male  mascu…
## 2 C-3PO    167    75 <NA>    gold    yellow    112   none  mascu…
## 3 R2-D2     96    32 <NA>    white,… red        33   none  mascu…
## 4 Dart…    202   136 none    white   yellow     41.9 male  mascu…
## 5 Leia…    150    49 brown   light   brown      19   fema… femin…
## 6 Owen…    178   120 brown,… light   blue       52   male  mascu…
## # … with 81 more rows, 5 more variables: homeworld <chr>,
## #   species <chr>, films <list>, vehicles <list>,
## #   starships <list>, and abbreviated variable names
## #   ¹​hair_color, ²​skin_color, ³​eye_color, ⁴​birth_year
```
…
